<?xml version="1.0" encoding="UTF-8"?>
<svg width="95px" height="66px" viewBox="0 0 95 66" version="1.1" xmlns="http://www.w3.org/2000/svg" xmlns:xlink="http://www.w3.org/1999/xlink">
    <!-- Generator: Sketch 59.1 (86144) - https://sketch.com -->
    <title>Group</title>
    <desc>Created with Sketch.</desc>
    <g id="Page-1" stroke="none" stroke-width="1" fill="none" fill-rule="evenodd">
        <g id="Artboard" transform="translate(0.000000, -15.000000)" stroke="#000000" stroke-width="6">
            <g id="Group" transform="translate(2.500000, 18.000000)">
                <polyline id="Line" stroke-linecap="round" stroke-linejoin="round" points="8.5 -8.15320034e-17 59.5 0 59.5 23.5 83 23.5 89.5 32 89.5 51 82 51"></polyline>
                <circle id="Oval" cx="70.5" cy="51" r="9"></circle>
                <circle id="Oval-Copy" cx="28.5" cy="51" r="9"></circle>
                <polyline id="Line-2" stroke-linecap="round" stroke-linejoin="round" points="59.5 6 74.5 6 83 23"></polyline>
                <line x1="0.5" y1="24" x2="26.5" y2="24" id="Line-3-Copy" stroke-linecap="round"></line>
                <line x1="5.5" y1="36" x2="19.5" y2="36" id="Line-3-Copy-2" stroke-linecap="round"></line>
                <line x1="5.5" y1="12" x2="31.5" y2="12" id="Line-3" stroke-linecap="round"></line>
                <line x1="39.5" y1="51" x2="58.5" y2="51" id="Line-3-Copy-3" stroke-linecap="round"></line>
                <line x1="9.5" y1="51" x2="17.5" y2="51" id="Line-3-Copy-4" stroke-linecap="round"></line>
            </g>
        </g>
    </g>
</svg>