<?xml version="1.0" encoding="utf-8"?>
<!-- Generator: Adobe Illustrator 22.1.0, SVG Export Plug-In . SVG Version: 6.00 Build 0)  -->
<svg version="1.1" id="Capa_1" xmlns="http://www.w3.org/2000/svg" xmlns:xlink="http://www.w3.org/1999/xlink" x="0px" y="0px"
	 viewBox="0 0 402 402" style="enable-background:new 0 0 402 402;" xml:space="preserve">
<style type="text/css">
	.st0{fill:url(#SVGID_1_);}
</style>
<g>
	
		<linearGradient id="SVGID_1_" gradientUnits="userSpaceOnUse" x1="307.0771" y1="-10.0133" x2="65.8962" y2="407.7245" gradientTransform="matrix(1 0 0 -1 0 404)">
		<stop  offset="0.1" style="stop-color:#951A3F"/>
		<stop  offset="1" style="stop-color:#FF6766"/>
	</linearGradient>
	<path class="st0" d="M399.1,309.9c-1.1-3.4-8.3-8.4-21.6-15.1c-3.6-2.1-8.7-4.9-15.3-8.5c-6.6-3.6-12.6-6.9-18-9.9
		s-10.5-6-15.2-8.8c-0.8-0.6-3.1-2.2-7.1-5c-4-2.7-7.3-4.8-10.1-6.1c-2.7-1.3-5.4-2-8.1-2c-3.8,0-8.5,2.7-14.2,8.1
		s-10.9,11.3-15.6,17.6c-4.7,6.3-9.8,12.2-15.1,17.6c-5.3,5.4-9.7,8.1-13.1,8.1c-1.7,0-3.8-0.5-6.4-1.4c-2.6-0.9-4.5-1.8-5.8-2.4
		c-1.3-0.7-3.6-2-6.8-4s-5-3.1-5.4-3.3c-25.9-14.4-48.2-30.9-66.8-49.4c-18.6-18.6-35-40.8-49.4-66.8c-0.2-0.4-1.3-2.2-3.3-5.4
		s-3.3-5.5-4-6.8s-1.5-3.3-2.4-5.8c-0.9-2.6-1.4-4.7-1.4-6.4c0-3.4,2.7-7.8,8.1-13.1s11.3-10.3,17.6-15.1
		c6.3-4.7,12.2-9.9,17.6-15.6s8.1-10.4,8.1-14.2c0-2.6-0.7-5.4-2-8.1c-1.3-2.8-3.4-6.1-6.1-10.1c-2.7-4-4.4-6.3-5-7.1
		c-2.8-4.7-5.8-9.8-8.8-15.2s-6.3-11.4-9.9-18s-6.4-11.7-8.5-15.3C98.5,9.2,93.5,2,90.1,0.9c-1.3-0.6-3.3-0.9-6-0.9
		c-5.1,0-11.8,0.9-20,2.8s-14.7,3.9-19.5,6c-9.5,4-19.5,15.5-30.1,34.7C4.8,61.3,0,78.9,0,96.3c0,5.1,0.3,10.1,1,14.9
		s1.8,10.3,3.6,16.3c1.7,6.1,3.1,10.6,4.1,13.5s3,8.2,5.8,15.8s4.5,12.2,5.1,13.9c6.6,18.6,14.5,35.1,23.6,49.7
		c15,24.2,35.4,49.3,61.2,75.2c25.9,25.9,50.9,46.3,75.1,61.2c14.6,9.1,31.2,16.9,49.7,23.6c1.7,0.6,6.3,2.3,13.9,5.1
		c7.6,2.8,12.8,4.8,15.8,5.8c2.9,1,7.4,2.4,13.5,4.1s11.5,2.9,16.3,3.6s9.8,1,14.9,1c17.4,0,35-4.8,52.8-14.5
		c19.1-10.6,30.7-20.6,34.7-30.1c2.1-4.7,4.1-11.2,6-19.5c1.9-8.2,2.8-14.9,2.8-20C400,313.3,399.7,311.3,399.1,309.9z"/>
</g>
</svg>
